{
  "announce":"http://acu-tracker-1.pie.cri.epita.net:6971/announce",
  "comment":"multiple nested directories, pictures, pdf, empty files.",
  "created by":"Acu 2018",
  "creation date":"1510499459",
  "encoding":"UTF-8",
  "info":{
      "files":[
          {
              "length":"191209",
              "path":[
                  "dir1",
                  "subdir1",
                  "secret.png"
                ]

            },
          {
              "length":"12",
              "path":[
                  "dir1",
                  "surprise.txt"
                ]

            },
          {
              "length":"428249",
              "path":[
                  "dir2",
                  "subdir2",
                  "slides-malloc.pdf"
                ]

            },
          {
              "length":"6964201",
              "path":[
                  "dir2",
                  "wallpaper_4k.jpg"
                ]

            },
          {
              "length":"0",
              "path":[
                  "empty.txt"
                ]

            },
          {
              "length":"0",
              "path":[
                  "empty2.txt"
                ]

            },
          {
              "length":"27",
              "path":[
                  "small.txt"
                ]

            }
        ]
,
      "name":"advanced_dir",
      "piece length":"32768",
      "pieces":"\u00F7>\u00AD\u00A8}EB\u00BD\u00DC=\u00D2D\u0006<\u00B9\u0098\u0002(\u00B2\u00C9\u00D8\u0088Xu\u00A9\u00B45|\u0093\u00A9\u00A8\u0009\u00B3\u00A8\u00ADs2\u00E0\u00B8E\u00A1\"\u0085Ex\u00C0\u000F\u00CA\u0001\u00D4\u00ACA\u0019\u00CF\u009C\u00D2\u0081\u00ED\u00E1_\u009A\u00D4#\u0082\u00D7Y\u001B\u00AA\u00A811b\u00F2{49[G\u00C5\u00873\u00A3\u008CC\u00D4\u00F3@(+\u0097\u0082\u0091\u00BB\u0080\u0084\u00D6R\u00FA\u00F0g\u00F3\u0016QX\u00B2\u00BC\"\u008B\u0082lb\"mV\u00E1\u009D_\u0098\u007F\u00D2\u00B8~\u00F95\u0083j\u0086\u0093\u00C5\u00F2F\u0014\u00DB\u00D9\u0010`\u00C4\u001C\u00F8s\u00A5\u00B5\u00B3\u00A0\u00DC\u008E6\u00DE\u00B2\u00BE\u001D\u001C\u008A\u0005\u00D1\u00F1\u0016)q\u00E8gBEA\u00D5\u00D1G\u00D33\u00CA\u00BB\u00F6I\u00C4n!~\u00F8\u00E3\u000B\u00E4\u00F2\u00D0L&\u00D7R\u00F8\u0015W]\u00FC\u00FB9v\u00C2\u00B9A\u00AA\u00C3t\u001F-\u00E1\u000B\u000A^\u00A7\u0009\u00C9w\u00AC\u00CF\u0088\u000Co{\u00F1\u00197Rb\u0088\u00D7\u00EA\u00DCKeAK\"\u0087\u00B9\u00FD\u0017' s\u00CE\u0094\u0080(|_\u009C\u0084#D\u00B4\u00B7\u00ED@\u0013\u001B\u00D1\u0010\u00ABq\u00BA\u0018\u0088\u00A4I.\u00FBc\u001D:[:-\u008F\u00FB\u0011\u007Fe7\u0012t,J\u00DC;> \u00CC[\u00B6\u00069\u00B3SXy?\u00C5\u008E\u00E3x\u00FBK\u00FA\u0010\u0088\u0008\u00845\u008Bg\u0013?\u008C\u00D3\u00D1^\u001C\u00FF\u00F8$\u00940\u00D79RH\u0081\u0097\u001Ae|tyS\u0016\u00AE\u00DE\u00D3\u00CC\u00D2,y\u0013^\u00A4F\u00CA\u00D0*\u00FE\u00B8\u00D9Y\u0014=\u00FA\u0089\u00F52V\u00AE\u00A9\u0092\u00C7\u008Cy\u00CBE\u00B1io\u00C0`\u00FE0>6\u00B1X?\u008F\u00C0t\u009E\u00CF\u00932\u00E0\u00A1\u00AC0R\u00DBM\u00CF\u00CB\u0092\u008E\u00A79\u0016\u0095\u0001\u00A4\u000B.J\u0003N6\u00CFXh\u00FE\u0013\u007F\u00EA\u00A4\u0004\u000A\u00CFhz\u00C6\u00EC\u00C9\u0095\u00FC\u00BD\u00E8\u0090\u0087\u00AA\u0007c\u00E0I^\u000A2'\u00BC\u00BBV)\u0002n\u0081_\u00EA\u00E0x\u00FB\u00E2\u001E\u0015\u00CC\u0098 R\u00E3M#IE\u00A0\u0096\u00D4@M|\u008C\u00E0\u00BC\u00EE4\u00D6\"\u00E5\u0007V\u00CDB\u00A0Afn\u009C\u00C3\u0008\u00A5C\u0090L43b\u009D\u0098f\u00DEhP\u0091@\u008C\u00A4\u00FD\u001A\u00FC\u00A5a\u00A6*\u0099\\\u00BE\u0013x\u001E;\u00AB\u00D7\u00C5\u00ED\u0090\u00BA\u0013\\\u00AC\u00E6\u00D1\u00A1!\u00D0\u0096TK\u009Ak\u0010\u001D\u008A\u00BC\u001E\u00D2\u0010\u00AFB1\u0003\u00CFh\u0008)\u00C1\u00F2\u00AE\u00C6\u001D)\u00D3\u000E\u0092\u00C1\u00FA~\u00962\u009F\u0000dSG\u00C1\u0008\u00F9\u001C?\u00B2n\u00AB\u001D\u0017\u001C.\u008Aq\u00D5\u00A7\u0013\u00D3\u00C6S\u00FD\u00D2\u0000\u00FE\u00017\u00DA\u0007\u0091\u00F6+&@\u0082\u00F28-3\u001D\u0099\u0000\u00B4y\u00BF\u009F\u00FC\u000CQ\u001B\u00AF\u00DA\u00DB-\u00B546\u0094\u008B\u00A1\u009E!4D\u00EFar\u00AA\u009A\u00D7rth\u0004\u00DB\u00C8\u00A8\u0006\u008C\u00DFW\u0009]\u000F\u00CA6\u00A5U\u0012VH7-\u0013p\u00F3\u00F7\u00E1G\u00E1;c\u0019%\u00EE\u00DCI;\u009D\u00E4)kX\u00A1\u00E14P\u0017\u001EM\u0086\u00C6\u00DF\u00F3\u0088xMM\u0089^\u001F lr+N\u00D9\u00D9|)\u00BA\u000DFO:\u00C1%R\u00B8c\u00BA\u00BD\u00C1\u00E8C\u00C7\u00A1#\u00AFUD\u0099\u0091\u0007\u0019\u0099\u0013/\u00C0D\u0080\u0018dcB\u0015?\u0085\u00A6\u0087nY\u00FE\u0012\u0093\u00F5\u009Fn\u00A8\u00ECI\u00C5\u00850V\u00C4\u00CB\u00A0}\u000C\u00ED\u0017\u00E8\u000E\u0010\u00A9\u0099[\u00C2\u0010\u00E3\u00B9p\u009A\u00C2\u009Ab=\u008F\u0016\u00AC\u008D\u00D6F\u00B2\u00E9\u0015\u0080\u0097\u0080!!|W-\u000F#\u001F/\u0017\u00DAIH\u00D2z\u00F0\"R!\u00B4Yc\u00F2\u00BC\u001C\u00B2\u000AC|$\u00CA-\u00C0\u00F9\u0019C\u000Ct\u0093!\u00A8\u00AE\u00FF\u00B7\u00FC\u009E\u00E0\u0005\u00F8\u00AAN\u00CD\u00B0(\u00AE\u00F9L\u00FC\u00B9\u001Dmms\u000D\u000E\u00F0\u00F4h\u001F6Fh\u00B5z^\u00EF\u00CD\u00BDh\u0013\u00FCzCO\u00A4\u00FDE&\u009F\u00A6\u00E4\u00CE~\u00BFr\u00F0\u00FE`}/m2\u000B>\u008C\u008BX\u00ED\u00F8\u001D$\u00BA\u0010\u00EF\u00D5\u00E8\u0093\u00F0v}\u00EE\u00C7x\u00EE\u000E\u001D\u0082q\u00EBX\u00E6\u0011\u00F8O\u001C\u0001\u00C9\u000D\u00FD\u000EnN\u00F8\u009A\u00F3\u00BAp6n\u000D\u00CB\u0005\u009B\u0090\u0000k%\u0019yg\u0007\u00CA\u00D8\u00D9XkW\u00B2R,\u001Cu\u00A2\u00D6\u00A0\u0085\u00C6\u001F\u0011,^.\u00D6\u00B3\u00DDS\u00B5\u0084\u00A3_-\u001C\u000A\u00B5\\1\u00B0\u009CU-#\u00DF4\u001B$\u00904\u00D5\u0097\u0093\u00BEC\u00EC%\u000FBa'\u00BF\u00D7Y7\u0099\u00AF~\u00E1%\u0012\u008Ex\u00D3\u00B3\u0083\u0091\u00B3\u001F\u00B8\u007FZ Vqs\u000C\u00E7\u00B6\u00E2\u00B8\u00AD\u00AB\u00B1\u00AF\u00B9\u00A3\u00AB>\u0005\u00BCJ\u00FFU\u0016\u00C9Z\u00AA\u00D2^I\u00A1\u008Es\u0000Z\u00FE\u009D\u00BE<\u0016-\u0014\u00EB#\u00FC \u00A9\u00E8S\u0090(,$\u001C\u0007\u009F\u0009\u0096}Vz\u00C8f\u00B9\u00E2WkUk\u00B4 n\u00F0F\\D\u0001\u0006\u00911o\u0083\u00B9\u00C2\u00D32\u00B6\u0087\u001Bv\u008E:\u00FB\u0011\u00FAQ\u00F8q\u00F3\u0005\u0014h\u0004\u00AF\u0091n\u00E4\u00DC2\u0092\u00AF\u009F2\u00B1\u00C3\u00F3\u00C2\u00F81\u008D'\u00E5\u00AD\u00F3,kskl\u001E\u00D5]q_\u00F2\u00D9\u00DC\u00ABH\u00F9{(&T&\u00C9\u00AB\u00B4\u001B\u00C0P\u00EB\u0099.M8d\u000B\u00C8\u00DB\u00C1\u00E5\u000AW\u00FE\u00A1\u00D2r\u001B`\u00EA\u00D1\u00FB\u00E1\u0088\u00E0\u00B1z\u00E4\u00B7\u00C4\u001F+Z2F:j_\u0082\u00E6.\u001Dt\u00C60\u00C0\u00A6u\u00F1\u00ED\u00E8\u00B6\u00DEE\u00B1\u00BE9D2Ax\u007F\u0010zc\u00D8\u00D37jWI\u00C1a\u00F3e\u00FEIb\u00A3\u00BEY-\u008C\u0012\u001D\u009B\u0012\u0082\u00E6\u00D4\u001D\u00BCZq\\\u001Aw\u00F1\u008E\u00D6\u00E7\u001Fy\u00D4\u0007\u00D5d\u00F7I) \u0085*)\u0098d\u0083&(\u008CGD\u00EA\u0083R>\u0098{\u0006\u00C30\u00D7j\u00E3\u00B5+\u0083\u00EF\u00FD\u00C9*\u00F8\u00037\u009F\u001B\u00ECr\u00FA\u00E5\u00FF\u0008\u00B9\u0096\u00C8\u0080\u00B9k\u00A5yQ\u00A6\u00FByv\u00F0M\u0019\u00D9\u0086\u0016\u00F0\u0008\u00D0\u00D6\u00E2_\u000C{w\u00D3\u0012\u00C3\u00AB\u00FAb\u0098*K<\u00C9H\u00B6\u0096\u00C0\u00CE\u00D8:[{\u0097\u00A7o\u00E9\u000C\u009B\u00B3:\u00E5\u00A5\u00E4m\u00FC\u0083\u0011_V\u00CE\u0080\u00C8\u001DN\u00D1E\u00F5\u00EB\u00DD\u00C7 \u00EA\u00C2\u00A8\u00E0\u000F\u00F9\u00994l\u00E0\u00FB\u00AA#\u001B\u00BC\u00D7\u00A0\u00CCf\u00CA7V JP\u00D6\u0089\u00AC\u00D1\u000C\u00D6M\u000A\u00A5C\u00D8\u00A4\u00EE,\u00B2ws.\u00CB\u00C59\u009E#\\c>\u00BB\u00AA\u0083.\u001A\u0013V)@\u00FA\u00C05SH\u0002\u0002(CU\u00ADY\u00EE\u00AA~\u00EA\u00EDN\u0001\u001D\u00E6J\u00E1M\u00C8\u00B6a\u00DC\u00102DO\u0005\u00A7\u00A2\u008B\u00BC\u00D8N4\u0091\u00FFV`\u00C3n\u0003\u00FCJ\u00C1f\u0014\u0098\u001F\u00E1\u00A4J\u0016\u00A0\u00ADm \u00F4\u00A9\u001B\u001E6IFGm\u0011\u00C1y+\u009CO\u00C1]\u00C1V\u00DF\u008B\u0086\u00BA\u00DF\u00EE\u00A6\u00D3uP\u00FB\u00D4\u00AC\u00DD\u0098n\u0091\u00A9\u00A1\u009CB[\u00F9(Z\u00D8\u0006;r\u00C5\u00CD\u008DZ\u001E\u00C3\u00B4\u0085K\u0093\u00E0\u008C\u0016a\u0000u\u0082\u00F6\u00EE\u00EE\u00EC\u000C\u00C1aAx\u00AE\u00B6N\u008EY\u00DC:\u00C9;\u0087U0\u00F5\u00C0\u0080*\u001F\u00BA\u009A\u00B9E\u00A8\u00F6r\u00C0\u00FFk\u0010\u00A9z\u00ADL\u00A1\u00EF\u000E\u008E]QBDH\u00C7\u00D0\u0015\u009EN0]c[=\u009En\u00AC)y\u0012\u00E7\u00F8\u008EU\u00CD\u00E2l\u00F6\u0083\u000A\u00CBt\u00B6\u00AB\u0000\u00E7\u00C5\u00DCF\u00FD\u0005*Cv\u00B8u\u00A5\u00BD\u0000Sc\u00B1=\u00A3\u00C9\u00A5\u00CF)\u0015Q\u0002N!$ \u00DCR\u001C\u00A8\u00D5+s\u0016\u00EC\u00F7\u0014\u00FA9\u00A0\u009A\u00B8\u0096K\u0081di\u00A1\u00E4TXn\u0010\u00CA\u00FA[{\u0082'm`\u00D9&\u00C4!\u0016\u00CF\u009D\u0087\u0087\u00F5&\u00A8N\u0017\u00AC``g\u00E2\u00FA?\u00AE\u009A\u0005\u00F7R\u00DAQ3M\u00BF\u00EF\u00AD\u00C3D\u00AFW\u00BBJv\u000D\u00A6\u00D9\u00C19j\u00CF\u00F4\u0093\u00BA^E\u00D1\u00BFv\u0014=D\u00BAa\u00EF\u00A0\u0098\u00F5\u00E5\u00D5G\u00F2>\u0085a\u00E6l\u000F\u00EEV\u00AAO\u008E\u00F3\u001EM\u00FE>\u0094\u00BDJr\u00D8\u0001*\u00FDc\u00AC\u0095e\u0019C\\\u00CB5\u0004\u000E!\u00AF\u00A6d\u00A9\u0082\u00DB\u007F\u00B1\u00E0\u000A\u00F8l\u001A\u0000\u00DE\u00D8[i\u00FF\u0004\u00AE-\u00D1\u00BC\u008B\u00CB\u00B3R\u00CE\u00E7\u00F6F\u001A\u0092!\u00A0\u0099\u0084e\u0009\u00B2\u00BBd\u0087A\u00F6\u00B5\u0097\u00CB\u00ECc\u0091\u00CCY\u0000\u00D6\u0097\u008C\u00CC\u00DF\u0002b\u00BD\u00BB\u0003\u0008?\u00FC\u001A\u0089X\"\u00B5\u001A\u000D\u00D8<+\u0018\u00C6r\u0010I\u00A4#\u0014\u009D\u0095|\u008F\u00082\u00C2n\u00B8z\u00F3\u00CF\u007F\u001C^\u009EJT\u00CCLz\u00A7\u0004\u0019\u00A6R\u00C3o\u00A7\u0084qvzwT\u00D3w3D\u0087\u00AA\u00A9%\u00C4f\u00A8@\u00BBq\u00000q\u00C9\u00D5T\u00B4\u00150\u009B|d\u00C5cd\u0015\u00BDqn=l\u00ED\u00FE\u0096\u00C5\u0092t\u001B\u00D8\u009B\u00F8\u0004W\u00AE\u00FD&R\u00FE\u00BAD\u0004\u00D5d\u001D\u001C\u00D5\u0099\u00C9[<'\u00F6\u00B13X7%\u0003\u00C1\u0018\u0095u~\u00A9<\u00EE\u00A4F'\u0019\u00BA\u009A\u00DD\u00F8\u0000i\u00A9\u00DD\u00C5\"\u0093\u00DFQ\u00DB\\_5.\u0084\u0094\u00A7\u00A9T\u00D2v<X-\u00CD\u0011\u00A7\u00FE\u00D5\u00E9\u000C!H\u0092#W\u008FmrB=\u00E2\u0093IZ\u008B\u00A2\u00FB\u00C3\u007F#\u00FE\u0006N\u00E1\u00F9\u00DDA+\u00BD\u0096YE=yB\u00CE\u008F\u00BF\u00A2\u00EB\u00A2iI\u000B\u0018\u00FC\u00E0]E\u0085}\u00B8\u00D6\u008A\u00B7\u00E9\u00FD\u00C6\u00F1\u0012#\u000E\u00B9t\u00FDp\u0094\u000E!\u0093,\u0000\u00A3>\u00F5\u0080\u00CD\u00F3e6{\u00CA6\u00DEsf\u0004\u009A9\u00B8\u0082\u00172\u00BD\u0098\u00BF\u0082n!<\u001C\u00F3\u00D1\u00EC\u00B6\u00A2l\u0091\u00CD\u00D2\u00DDuD\u00AD\u00C8\u00B5+P\u00DBz\u00DFm$\u001F&-\u00A2'm \u00C1\u0096\u00C9H\u00B9\u00EB\u009A\u00FA\u0010\u00D8\u0084}\u00B1\u0016\u0000\u00E1\u00E8hz5\u0006\u00AB\u009F\u00839\u00DC\u00F6\u00FA\u00C4me\u00F7\u00A5FP\u0005\u00D2\u00E6m\u0002\u00E2\u00B0\u00F1\u0018\u009C\u0002\u000Em\u00AA\u00BC\u0014{\u0085h6\u001B\u0013c\u0096P\u0097J3\u00AC\u00F8C\u00A8\u0019\"\u001C\u0092\u0097\u008FE\u00ECr\u0099\u00E7\u00F5g\u0091\u0080\u0017\u0003H\u0087c\u00D7\u00DE\u00E4\u00D3\u008Cs+Q\u00DB\u00D6\u0087@v\u0087\u009D\u00EF_Q\u001D\u0085\u0018t\u00CA$J\u0016\u00AEqb\u00E6\u00B7\u001Ag%/\u001A\u00C6\u00A0k\u00D8\u00C6q\u008Dd\u00F3\u00BC\u00DB!\u00EFy\u00F3\u0084@\u00F8\u0014'\u00A0<\u00C9\u00EE\u0084\u0085tR\u00E4\u00F9e\u009DYZ\u00C4\u00AE_WQ\u00E0\u0084V\u0090\u001FD\u00F6\u00A7\u00DDbcX\u00C5\u0089\u00140\u00E9\u00B7L\u00F1\u00A2\u00FEG\u00C6K\u0080\u0092\u00EC.\u00E77\u00C3n\u0093\u00E18\u00A6x\u00C7\u00C9(\u00BC\u001E?\u0010\u0013US:\u0085~\u00C5\u00F2\u001F\u00A9j\u009D\u00AF\u00EEB\u00EB\u009D\u0098\u00F9>\u00A5\u000A\u0014g\u009E-?\u00A6\u00E9k(#~y\"^T\u00CC9\u0097\u00C9\u00D9\u000E]\u0091\u008A~rAU\u0017\u00AC\"Ul\u00AC\u00EF\u0082\u0081\u00E9\u00FB6<\u00DAqn[\u0000\u00FCd\u0095u$\u00E9\u001A\u00EC?\u00EB\u00CF\u00B2\u00AC\u00F4\u0084\u001F\u009AD\u00CB\u00DC\u0000c\u0014\u00C7\u000F<\u00F6\u00957\u00CB\u00D5b\u008A\u00B4I#\u0015\u008B\u00E1\u00A2p`\u00BB\u00B6 4\u0089U~N\u009EP\u008C\u00FA\u00A6\u009B\u00CF9`oBZ\u00AE\u0016\u00DFx\u0098\u00D3\u00AF\u00FA\u0083#\u001A\u001A;\u00D6\u00D6\u0086\u0006M\u0002\u0085\u00E3\u00048qL\u00C4&y\u0091\u00DB1\u00C0$\u0012\u001Ew\u00CC9\u00E4\u007FP\u00A9c\u001A\u00D2Z\u00D6\u0093\u00DDh,\u00D4%\u00A7f\u00E7\u00C8\u0095v\u001D=X\u0013\u0088n\u0093\u00FE\u00E5i\u0081\u00CC\u0003u\u0017\u00CB\u00EC\u00D8\u00D2\u00ABc\u008F\u0090\u00EA\u00D0\u00A3<E=\u008B\u0094#\u00B7\u00C1<E\u00BB\u00F0\u00E6\u00CE\u001C\u00DC\u009F\u0090\u00A1s\u00A8\u0085\u00CD\u0000?\u0001\u00C8\u001C\u00D7\u00DB\u0016\u0019\u00CB^&\u00D9\u00FAR\u00F3\u0087t\u0098\u00B3\u00E7\u00F8\u00C9\u007F7\u00DA^;\u000F\u00D2\u00B5\u0019\u00D8\u00AF\u00EEG\u00F4\u00B2\u00ADE;\u00BCk%\u00CDt~\u00A9Q|\u00D9m\u0006\u00F8\u0010<\u0094\u001CA\u00B7&\u00D2R\u009F\u00FACw\u008B()x:\u00C9\u00B3\u00876R\u00FC5 \u00A0\u00DE\u00FD\u0093\u00CEz\u001E\u00C5@\u00A6u}i=r\u0015FH\u00DC\u00C7\u00D2i\u00CD\u0016\u00DEru\u009D\u00A7\u00ED\u009CW\u007F\u00AB\u00A0T\u0091\u0010+\u00D9\u00A3\u00AC\u00CC\u00D9\u00ACywz\u00E6\u00941'R\u0082\u00EC\u0086\u00C7{\u00D1'\u00FA],\u00D5\u0007\u00C52\u00A7!u\u00AB\u001CC\u0009 Q\u00A2U\u0091\u00A5\u00F6\u00D1d2sr\u0094C\u00A6\u00FBd=S\u0093\u00D7\u00BD\u00F1\u00A0r\u0019T\u00831\u00865xi\u0090Re\u0018\u0018\u00F7\u00E8\u0013\u0006\u00B3!:h\u009B\u00D7\u00CA\u0019c|\u0011\u0086\u00B9\u00A4g\u00D2UqG\u0086\u00C9/a\u00F8\u008C\u0090\u00B1\u0000S\u00A2\u00D8y\u00EB\u00C2\u00A74X4'\u00D0`\u00AD\u00FC0-\u00FE\u00D9\u00CE}\u00EAi\u00C8\u00F0\u00D2\u00E3\u00EE\u0089{9\u00D5u\u0016\u0081\u00F1\u00A2\u00ABv\u00AA \u00D6\u00D2\u00D1\u0096\u0092\u00BB\u00E2\u00E6z\u0088\u00DD\u00A63g'\u00DD\u00AF\u0009\u000B\u00175\u0011\u00CE\u00EA\u00A7\u00C8\u0016\u00E8\u008B\u001D\u00FF\u00C5\u00BC\u00D4B\u0083\u00AD(\u000Bv\u00AD\u009C\u00B1\u0007\u00E8\u00F2b\u008E~\u0098\u00057v|k\u0007HJFS\u0098\u00F0\u00FE\u00B18\u008D\u000A\u0099\u00C1\u00A6\u0090l\u00C2gBA^2\u00B5\u001DW\u0087\u00FD\u00BC\u00E6\u009E\u008E\u00A2\u00DA\u00DC\u00DE\u00EC\u0009!\u00BE\u00C2@\u008F2\u00FC>~*^{VzH\u0000nHa\u0084/\u0080\u000C\u0089\u0016\u00F5\u00B2\u00EE\u008C\u0080\u00C2&\u00EAZm\u0081\u00AF\u00E8\u00EC\u008A\u000A\u00BF\u0093-\u009A{\u00D4\u0086URX\u00EFn\u0085\"\u001D\u00BB\u00B2R\u00C4\u0015.\u00C3\u00BCD\u00E6\u00F6]\u00E7\u0094Y\u00DC\u0015\u0005\u00EE\u00C2\u008F\u00BA\u00BE\u00CDv\u007F;\u00CB\u00AEM\u00EB\u0083\u001C\u00D7\u00D1%l\u00F3\u000B=y%\u00D8\u00E3\u00948r\u009C\u00F5\u00B3\u0013\u00F6\u009F 0\u0094\u00E77\u0011$&:Aj\u008A\u008F\u007F\u00E3\u0095*\u0014\u00DB\u00A0\u0089\u009Ad.\u00C0\u0010L\u00EA\u00E9\u00B0\u0099\u009D\u00D2\u00AA@Y\u00AE\u00E1\u00CA\u00AC\u00C8<8\u00DFy\u00E1)\u00A9s\u00A9ZH\u00B3P\u00EB\u00FB\u0080\"\u00E6%0iT^\u00C7\u00D2\u00C6w<\u00B8|vx>^{\u0006\u00DD;zr\u00B8\u00F3\u00B3.@\u00A1V\u00A1^\u00E5\u00D1\u00E3\u0091\u00EC\u00EDo\u00E5^2;tzID\u00FD\u00F5\u00FE\u0098ed/h\u00BF\u000E\u00BE\u00BA\u00E2\u00A7\u00EFj\u0096P\u00BC\u00AE\u00BB\u00E5Q\u001Aa\u00F7\u000F\\\u00D3<\u00BD\u00B5&\u00A1\u00BDz\u00E4\u00A7T/\u00C3\u0006{\u0018\u00110\u009E\u008D\u00CD\u00ED\u00A1a\u00F4\u00F9\u0000\u00EE\u00F4\u00B8\u0086M\u0083,E\u00A30}\u00ED\u00A9\u0009\u0080\u00D8\u00AA\u00A3\u000D%3kz\u00CF\u001A\u00EB\u00A6\u001C\u009E\u0095\u00F2\u0093\u00E7W\"k\u00B8H\u00BD\u00B0^\u00C9\u00F83lV\u00C9\u00F2\u0004\u00B7o\u00FA\u009DU\u00DF\u0088\u00B1y\u008B\u00BE\u00E9g\u008AAY\u000C\u00C9u\u00A4z\u00C9\u00D5\u00EB}\u001DL\u00B2(\u009E\u00BEtb\u0089\u00D7\u008Es\u00B5&\u0004\u00BA\u00E4\u0091\u00F4}\u00C9\u00FC<\u00CB\u009Bm\u00FC\u009A\u009A\u00EA+S\u00F8\u008Cn\u00D5FhJ\u00D9=P\u00FDp\u00B6\u0013\u009B\u009C\u0015\u0098d@\u0018\u00FC\u007Fsj\u00CCh\u0006\u00FC@\u007F\u0083\u00FD\u00A7!\u0094\u00CE\u008Bn\u00A7\u00033\u00F7\u00BE\u00CBt\u00F1hw\u001B2\u0089\u00FF,\u0017-\u008E\u00B4c\u00FA\u0013\u00CA\u00F2\u00E8\u00D2\u0011j\u0088+\u00F9\u0012\u00E1\u00DBA\u008FU{\u000EQ\u00B4\u0009\u00F9v\u00BB\u0001\u000C\u00BE\u00B8\u0012\u0089]{\u008F\u0006\u00E6\u00D4\u00DF4\u00F2 \u001B\u00DB\u00EF6\u0014]\u00D2\u00E7\u00E9U/\u0014\u009F\u00AC\u0095\u00C6\u001E\u00BF\u008D\u00E2\u0016(\u00D9\u00A4[\u00C4N\u00AE\u00DE(\u0088m/\u007F\u008E\u00C4\u00E9\u00D2\u0096\u00AF!\u009F\u0018\u0005N\u00F1\u00B5\u00D76&\u008E><\u00F0\u00C2cY\u00A2\u00B0\u000B/\u00B7\u00B0\u00B4\u0095y\u00D1t\u00AD\u0089b\u00D6\u0085\u009E,\u00BC:&\u0006\u00DEvl\u00BA\u0093\u00DD\u008A0)\u0015H\u001E,\u00E1<\u0098\u00F1\u0084/\u00ACqq/A\u0083<v\u00B1B\u00D5.\u00AAN\u00F2\u0091\u0014P\u00A4}\u00905\u009A\u00FFy\u000C\u00E7\u0007f\u0092P\u008B\u0089\u00ABV\u00AE\\\u00EC\u0093\u00E4\u0017\u0017>\u00C5\u0087\u00B3K\u00A2\\\u00FB\u00BC\u00F8\u0002\u00E9\u00CAc\u00CE\u008A\u00F4U\u009A[\u00BC\u0002\u00BD1A\u00FE\u009C\u00D7\u00C2\u00F7;\u00CD\u000B,\u00B3n\u00A3\u000E\u00F8\u00FE\u0098\u00A0\u00D9wr\u000D\u008B\u001C\u00C2\u000A`\u00E2\u00EF5c\u00C3\u0002X<\u0016*0Y\u00C6m\u000E\u00FA=\u0006psv)\u00C3\u000F\u0092<(^{\u00F23\u00BE\u00EA\u00D7\u00F5\u0086\u0004\u0008\u00CB,\u00EF\u000FOo\u000C\u00F4\u0094 \u00FE\u000B}a3\u00C4\u0002Am\u0084\u00CC\u00A2\u00E8\u000FB\u009B]\u00AF\u0093\u00AD\u00BA&;\u0002\u00AA3\u00BA6Y\u00D7\u00E0\u0084\u0080\u00D9t\u00BA\u00C7\u00D6\u00E0\u00E4\u00B4\u009F\u00A3\u00F31V\u00A4(\u00DEx\u00B7=F\u0083b\u00E8T\u00B6v\u0010\u00B1\u00E2Zp\u00B6\u00E0\u0082@\u00A6\u00C3\u00A9\u00F3\u00BAxCb\u00D7\u000D\u00A6\u00FE&Y\u00CD\u001FA\u0019\u00F2\u00CA\u009Ay\u001F\u0096\u00C6LT!\u009A\u00E3r\u00BAU\u00A7Al\u009F\u00D9T\u00A3\u00A3e\u000B\u0091R\u00D9S\u00D3\u009Bv\u001A\u00A3\u00EE\u00F8\u0088;\u00D8\u00F1f\u0010\u00C2\u008D9\u00A04\u00A41\u0096\u00EBD\\\u0013\u00C3J\u00EB\u00B5}GT4\u00C4\u00A0~N%g\u00B8\u00E3]\u00A6\u0004\u00FE4*c\u009B\u00B72\u008Cn\u0018\u0094]w\u00A4\u00FFO\u00C7[\u00CEn\u00DDX\u00C5\u00E3\u00EB\u00A8\u00CC\u00A5\u0095\u00DA;\u00D1\u0003\u00F8\u00AE\u00A9r\u0094 \u00BA6\u0007\u00F9\u0004#\u00FB\u0098\u00BD\u0017\u00A8\u001C\u00AA\u00CBD\u001E\u00A5%'\u00D4;\u008AX\u00AD\u0012 \u00C8\u00ED!\u00F1\u00FE\u0097.'\u00E4\u00DB\u001D\u008E>\u00BF_\u0004\u00B9\u001B\u0080\u00C5=\u00AF\u00E8o\u00A9\u00C0\u008C\u00EC\u00F4\u00D1\u00D7\u00E28\u0098Tv/|\u00DCc!\u0088|B\u00CB\u00E3\u00C5\u00D4\u00E9!N\u000C\u008C\u00E2\u00EAJCR\u00F9f.4\u00AE\u00883\u00BB)\u00A0&\u00C7z\u00D1j^\u00AE\u00D9\u00B7\u00BC \u0087\u00E2uL$\u00D5a\u0091\u00C3\u00902\u000A\u00F2x\u0018_j\u00E7\u00B5\u00EA\u00EB\u00823\u0091@\u00CA\u000B\u00BD\u0098\u00D3#\u008F~\u00D0\u0084\u0018a&nQ#\u00CB\u00E3\u001B\u0094\u000A\u000D\u00ABV\u0084\u0018\u00C5\u00A3\u00CE\u000B\u00A5\u00B7\u00B0<\u00D8u!\u0081\u00E2iY,'\u00AA\u00AC\u001B\u009E\u00BDn=V\u00E4>\u009Ba\u00A8\u00D7P\u0082\u00D7Q\u0083pxONZB\u00F5\u00C6\u0083\u00AB\u0013\u00E75\u00A2\u0083%\u00D29\u000C<A\u0099\u00C5 \u00E1[`N\u00A5\u00C2F\u00DF\u00EA\"\u00A2\u00C8\u00AC\u0088w\u008C\u00A7\u00A3\u0002\u00E2\u0093k!F\u00A8Q;(\u001FwK\u00A5DRe\u00D27\u0081\u00BFu\u00D1Jd&\u0018:\u00A2\u00E2\u00DDB\u000F\u00F8k}\u00C4,0\u0014\u00FE\u00C1\u0099^\u0090\u00AC\u000C9 \u00D1\u00EF\u0003\u0097K/a\u00EF\u0086s\u00C7\u0097\u00EE\u00EB\u0004$w\u0013_S\u001D\u00D2\u0099, c\u00D2\u00B4\u009Aw%\u000D\u0009\u00A5\u00B2\u00E5J\u000A\u0014\u0094,\u0080R\u0084\u00BE\u00F9\u008DA\u00CE\u00EE\u0017\u00E9/\u00D5\u009C(\u00FD.\u0010\u0094=\u0011\u009AKx\u000B\u0093 \u00B3\u00D1\u008B\u0090\u00AEn',9C\u00AD+\u00B6\u00C1\u0016\u00D6@\u00C6\u00EF\u00D4]\u00AFu\u00DF\u001C\u0092H\u0014\u00CDt\u0081w\u00A3\u00D9\u0084s\u00E7\u00F3\u0017\u001C\u00CBJ\u00AC\\a\u00105\u00AD\u0093\u00B6h\u0092\u00DD\u00C2eTNf\u00B0m\u00E9\u0011j7K\u00EE%\u00C6\u00D6gVQ.\u009C?\u00A9\u0095\u008FT\u00BA$\u00C8\u0087\u00DAn\u00C1\u0010R,\u00A6\u0012\u00D4\u00B6\u00030\u00C0`\u00EBe\u00AB\u0094\u00B5\u009F\u00ECyp\u00F6\u00D2\u001D\u00B4C\u00D2{\u00F3#$j\u00F5\u00AE\u00C7W\u00B6\u00E2slV\u00C0\u00B3\u0008\u00AC]\u00FC\u0013S\u00D0\u001A\u00F6\u00A30;7\u00E0\u00DB2H\u00F6j\u00B2U\u00F6\u0013\u00FDM\u0098\u00C8pS\u00BFB\u00BD\u00F1\u0002Pa\u000C\u00EA\u00D3\u0011wY\u0002x6\u000CP\u0014\u00E8\u008C\u0081\u00C0r\u00AE\u00CC\u0081\u00CF\u00A0\u000C\u001B\u0095NJ\u009C\u00BF\u00B2\u00C0VZ\u00DA\u00155\u0019\u00F0\u00F7*\u00C8m/\u00ED\u00FA`\u00F5\u00B4\u008F\u00E0\u0081\u0018\u009A{\u00B6\u00B8\u00C4\u0015.9\u009ED\u00A5\u00CF\u00BBk\u00EA\u00B2\u0010W\u00C8\u00F8-9\u00B2R\u00F3g.X\u00DB\u00DA\u00E8\u00BD\u00AC\u00E2\u00F7:q\u00D3n\u00E8v\u000B\u00C5O\u00EE\u00D5\u00DC\u00DA2\u00CC`\u00EA\u0083\u00D4f\u00F2\u0010\u009B\u00D3\u00D8a\u00E0\u0097\u00B5\u0001\u00EE\u000E\u0086\u0088n\u00FC0h\u0007\u008E1\u00CF\u00B3\u00E6\u00BC\u00F1\u0007<\u00AD\u00B4\u00DC7m)Q\u00F7C\u00AA\u00C7\u00CD}\u001F7-\u00A1\u00A8fl\u007F\u007F\u008F}l\u00B1\u001B\u00A7Y\u00F0l\u0091\u00D42\u00940\u00B7\u00AA\u00FB\u009F\u00A0ZJfq\u0007\u000A\u00B1",
      "private":"0"
    }
}
