{
  "announce":"http://acu-tracker-1.pie.cri.epita.net:6973/announce",
  "comment":"congratulations file",
  "created by":"Acu 2018",
  "creation date":"1510495533",
  "encoding":"UTF-8",
  "info":{
      "length":"161",
      "name":"Congratulations.txt",
      "piece length":"32768",
      "pieces":"u\u0005\u00DF\u00D1\u00F5\u00E1?\u00D0\u00EB\u00DC\u0003\u00F1\u0003\u0098\u00DA\u00B0\u009F6s\u008B",
      "private":"0"
    }
}
